<?xml version="1.0" encoding="utf-8"?>
<!-- Generator: Adobe Illustrator 18.1.1, SVG Export Plug-In . SVG Version: 6.00 Build 0)  -->
<svg version="1.1" id="Layer_1" xmlns="http://www.w3.org/2000/svg" xmlns:xlink="http://www.w3.org/1999/xlink" x="0px" y="0px"
	 viewBox="0 0 33.5 16.9" enable-background="new 0 0 33.5 16.9" xml:space="preserve">
<g>
	<path fill="#919191" d="M26.9,16.9H6.6c-3.6,0-6.6-3-6.6-6.6V6.6C0,3,3,0,6.6,0h20.2c3.6,0,6.6,3,6.6,6.6v3.6
		C33.5,13.9,30.5,16.9,26.9,16.9z M16.8,1.6c-3.8,0-6.8,3-6.8,6.8s3,6.8,6.8,6.8s6.8-3,6.8-6.8S20.5,1.6,16.8,1.6z"/>
	<path fill="#919191" d="M16.8,14.7c-3.5,0-6.3-2.8-6.3-6.3c0-3.5,2.8-6.3,6.3-6.3s6.3,2.8,6.3,6.3C23.1,11.9,20.2,14.7,16.8,14.7z
		 M16.8,3.1c-2.9,0-5.3,2.4-5.3,5.3s2.4,5.3,5.3,5.3c2.9,0,5.3-2.4,5.3-5.3S19.7,3.1,16.8,3.1z"/>
</g>
</svg>
