<?xml version="1.0" encoding="utf-8"?>
<!-- Generator: Adobe Illustrator 18.1.1, SVG Export Plug-In . SVG Version: 6.00 Build 0)  -->
<svg version="1.1" id="Layer_1" xmlns="http://www.w3.org/2000/svg" xmlns:xlink="http://www.w3.org/1999/xlink" x="0px" y="0px"
	 viewBox="948.5 531.1 23 23" enable-background="new 948.5 531.1 23 23" xml:space="preserve">
<path fill="#919191" d="M970.5,536.1v-3.5c0-0.3-0.2-0.5-0.5-0.5h-5.2c-0.2,0-0.4,0.2-0.5,0.4h-9c0-0.2-0.2-0.4-0.5-0.4H950
	c-0.3,0-0.5,0.2-0.5,0.5v3.5c0,0.2,0.1,0.3,0.2,0.4v11.7c-0.1,0.1-0.2,0.2-0.2,0.4v4c0,0.3,0.2,0.5,0.5,0.5h20
	c0.3,0,0.5-0.2,0.5-0.5v-4c0-0.2-0.1-0.3-0.2-0.4v-11.7C970.4,536.4,970.5,536.2,970.5,536.1z M969.5,535.6h-4.2v-2.5h4.2V535.6z
	 M964.8,536.6h4.5v11.5h-18.6v-11.5h4c0.3,0,0.5-0.2,0.5-0.5v-2.6h9v2.6C964.2,536.4,964.5,536.6,964.8,536.6z M950.5,533.1h3.8v2.5
	h-3.8V533.1z M969.5,552.1h-19v-3h19V552.1z"/>
<path fill="#7FC67C" d="M964.6,542.1l-8.6-3.9c-0.2-0.1-0.3-0.1-0.5,0c-0.1,0.1-0.2,0.3-0.2,0.4v7.6c0,0.2,0.1,0.3,0.2,0.4
	c0.1,0.1,0.2,0.1,0.3,0.1c0.1,0,0.1,0,0.2,0l8.6-3.8c0.2-0.1,0.3-0.3,0.3-0.5S964.8,542.2,964.6,542.1z"/>
</svg>
